…
Now I will look at how life expectancy is chaning over time between the
continents

``` r
gapminder %>% 
  group_by(continent, year) 
```

    ## # A tibble: 1,704 x 6
    ## # Groups:   continent, year [60]
    ##    country     continent  year lifeExp      pop gdpPercap
    ##    <fct>       <fct>     <int>   <dbl>    <int>     <dbl>
    ##  1 Afghanistan Asia       1952    28.8  8425333      779.
    ##  2 Afghanistan Asia       1957    30.3  9240934      821.
    ##  3 Afghanistan Asia       1962    32.0 10267083      853.
    ##  4 Afghanistan Asia       1967    34.0 11537966      836.
    ##  5 Afghanistan Asia       1972    36.1 13079460      740.
    ##  6 Afghanistan Asia       1977    38.4 14880372      786.
    ##  7 Afghanistan Asia       1982    39.9 12881816      978.
    ##  8 Afghanistan Asia       1987    40.8 13867957      852.
    ##  9 Afghanistan Asia       1992    41.7 16317921      649.
    ## 10 Afghanistan Asia       1997    41.8 22227415      635.
    ## # ... with 1,694 more rows
…
``` r
gapminder %>%
  group_by(country) %>% 
  mutate(min = min(pop)) %>%
  arrange(min)
```

    ## # A tibble: 1,704 x 7
    ## # Groups:   country [142]
    ##    country               continent  year lifeExp    pop gdpPercap   min
    ##    <fct>                 <fct>     <int>   <dbl>  <int>     <dbl> <dbl>
    ##  1 Sao Tome and Principe Africa     1952    46.5  60011      880. 60011
    ##  2 Sao Tome and Principe Africa     1957    48.9  61325      861. 60011
    ##  3 Sao Tome and Principe Africa     1962    51.9  65345     1072. 60011
    ##  4 Sao Tome and Principe Africa     1967    54.4  70787     1385. 60011
    ##  5 Sao Tome and Principe Africa     1972    56.5  76595     1533. 60011
    ##  6 Sao Tome and Principe Africa     1977    58.6  86796     1738. 60011
    ##  7 Sao Tome and Principe Africa     1982    60.4  98593     1890. 60011
    ##  8 Sao Tome and Principe Africa     1987    61.7 110812     1517. 60011
    ##  9 Sao Tome and Principe Africa     1992    62.7 125911     1429. 60011
    ## 10 Sao Tome and Principe Africa     1997    63.3 145608     1339. 60011
    ## # ... with 1,694 more rows
…
